Lab 10
…
svm_spec <- parsnip::svm_linear() %>%
    parsnip::set_mode("regression") %>%
    parsnip::set_engine("LiblineaR")

svm_fit <- scotus_wf %>%
    workflows::add_model(svm_spec) %>%
    workflows::fit(data = scotus_train)

svm_fit %>%
    workflows::extract_fit_parsnip() %>%
    recipes::tidy() %>%
    dplyr::arrange(-estimate)

# A tibble: 1,001 × 2
   term                  estimate
   <chr>                    <dbl>
 1 Bias                   1920.  
 2 tfidf_text_later          1.50
 3 tfidf_text_appeals        1.48
 4 tfidf_text_see            1.39
 5 tfidf_text_noted          1.38
 6 tfidf_text_example        1.27
 7 tfidf_text_petitioner     1.26
 8 tfidf_text_even           1.23
 9 tfidf_text_rather         1.21
10 tfidf_text_including      1.13
# ℹ 991 more rows
…
test_words1

 [1] "Bias"       "later"      "appeals"    "see"        "noted"     
 [6] "example"    "petitioner" "even"       "rather"     "including" 

Code

svm_fit %>%
    workflows::extract_fit_parsnip() %>%
    recipes::tidy() %>%
    dplyr::arrange(estimate)

# A tibble: 1,001 × 2
   term                 estimate
   <chr>                   <dbl>
 1 tfidf_text_ought        -2.77
 2 tfidf_text_1st          -1.94
 3 tfidf_text_but          -1.63
 4 tfidf_text_same         -1.62
 5 tfidf_text_the          -1.57
 6 tfidf_text_therefore    -1.54
 7 tfidf_text_it           -1.46
 8 tfidf_text_which        -1.40
 9 tfidf_text_this         -1.39
10 tfidf_text_be           -1.33
# ℹ 991 more rows
…
2.7 Evaluating the Lasso Model

Code

tune::collect_metrics(tune_rs)

# A tibble: 45 × 7
    penalty .metric     .estimator   mean     n  std_err .config              
      <dbl> <chr>       <chr>       <dbl> <int>    <dbl> <chr>                
 1 1   e-10 accuracy    binary     0.879      5 0.00115  Preprocessor1_Model01
 2 1   e-10 brier_class binary     0.0909     5 0.000769 Preprocessor1_Model01
 3 1   e-10 roc_auc     binary     0.941      5 0.000923 Preprocessor1_Model01
 4 5.18e-10 accuracy    binary     0.879      5 0.00115  Preprocessor1_Model02
 5 5.18e-10 brier_class binary     0.0909     5 0.000769 Preprocessor1_Model02
 6 5.18e-10 roc_auc     binary     0.941      5 0.000923 Preprocessor1_Model02
 7 2.68e- 9 accuracy    binary     0.879      5 0.00115  Preprocessor1_Model03
 8 2.68e- 9 brier_class binary     0.0909     5 0.000769 Preprocessor1_Model03
 9 2.68e- 9 roc_auc     binary     0.941      5 0.000923 Preprocessor1_Model03
10 1.39e- 8 accuracy    binary     0.879      5 0.00115  Preprocessor1_Model04
# ℹ 35 more rows
…
Computational engine: glmnet 

Code

fitted_lasso <- fit(final_lasso, complaints_train)

fitted_lasso %>%
    workflows::extract_fit_parsnip() %>%
    recipes::tidy() %>%
    dplyr::arrange(-estimate)

# A tibble: 501 × 3
   term                                        estimate penalty
   <chr>                                          <dbl>   <dbl>
 1 tfidf_consumer_complaint_narrative_funds        31.7 0.00139
 2 tfidf_consumer_complaint_narrative_debt         20.7 0.00139
 3 tfidf_consumer_complaint_narrative_money        20.0 0.00139
 4 tfidf_consumer_complaint_narrative_escrow       17.5 0.00139
 5 tfidf_consumer_complaint_narrative_transfer     16.9 0.00139
 6 tfidf_consumer_complaint_narrative_offer        16.5 0.00139
 7 tfidf_consumer_complaint_narrative_collect      15.5 0.00139
 8 tfidf_consumer_complaint_narrative_further      15.3 0.00139
 9 tfidf_consumer_complaint_narrative_fees         15.2 0.00139
10 tfidf_consumer_complaint_narrative_calling      14.0 0.00139
# ℹ 491 more rows

Code

fitted_lasso %>%
    workflows::extract_fit_parsnip() %>%
    recipes::tidy() %>%
    dplyr::arrange(estimate)

# A tibble: 501 × 3
   term                                          estimate penalty
   <chr>                                            <dbl>   <dbl>
 1 tfidf_consumer_complaint_narrative_experian      -61.5 0.00139
 2 tfidf_consumer_complaint_narrative_transunion    -48.6 0.00139
 3 tfidf_consumer_complaint_narrative_equifax       -43.0 0.00139
 4 tfidf_consumer_complaint_narrative_reporting     -26.4 0.00139
 5 tfidf_consumer_complaint_narrative_score         -18.2 0.00139
 6 tfidf_consumer_complaint_narrative_inquiries     -17.1 0.00139
 7 tfidf_consumer_complaint_narrative_report        -17.0 0.00139
 8 tfidf_consumer_complaint_narrative_credit        -15.1 0.00139
 9 tfidf_consumer_complaint_narrative_hard          -15.0 0.00139
10 tfidf_consumer_complaint_narrative_late          -13.6 0.00139
# ℹ 491 more rows
