Lab 9
…
print("Top words in each cluster (k=3):")

[1] "Top words in each cluster (k=3):"

Code

print(cluster_words_3)

# A tibble: 30 × 3
# Groups:   cluster [3]
   cluster word  total
     <int> <chr> <int>
 1       1 mr      962
 2       1 miss    700
 3       1 mrs     687
 4       1 will    685
 5       1 must    639
 6       1 much    588
 7       1 one     555
 8       1 said    550
 9       1 well    471
10       1 emma    458
# ℹ 20 more rows
…
print("Top words in each cluster (k=6):")

[1] "Top words in each cluster (k=6):"

Code

print(cluster_words_6)

# A tibble: 92 × 3
# Groups:   cluster [6]
   cluster word  total
     <int> <chr> <int>
 1       1 mr      867
 2       1 mrs     643
 3       1 miss    627
 4       1 will    620
 5       1 must    608
 6       1 much    565
 7       1 one     522
 8       1 said    515
 9       1 well    453
10       1 might   426
# ℹ 82 more rows
…
Code

beta_spread <- ap_topics_long %>%
  dplyr::mutate(topic = paste0("topic", topic)) %>%  # Create a topic identifier
  tidyr::pivot_wider(
    names_from = topic,        # Pivot topic names to separate columns
    values_from = beta         # Populate those columns with beta values
  ) %>%
  dplyr::filter(!is.na(topic1) & !is.na(topic2) & (topic1 > 0.001 | topic2 > 0.001)) %>%
  dplyr::mutate(log_ratio = log2(topic2 / topic1))

beta_spread

# A tibble: 303 × 10
   term       topic1  topic2   topic3   topic4   topic5   topic6  topic7  topic8
   <chr>       <dbl>   <dbl>    <dbl>    <dbl>    <dbl>    <dbl>   <dbl>   <dbl>
 1 action    3.90e-4 1.10e-3 1.15e- 4 2.40e- 4 2.98e- 4 1.30e- 5 1.31e-3 3.88e-4
 2 added     5.71e-4 1.20e-3 6.77e- 4 4.55e- 4 3.86e- 4 4.98e- 4 2.70e-4 5.36e-4
 3 administ… 1.09e-3 4.11e-3 4.41e- 5 6.00e- 4 2.60e- 4 5.44e- 5 1.05e-3 4.17e-4
 4 agency    1.26e-3 4.48e-4 4.81e- 5 2.44e- 3 1.40e- 3 3.00e- 4 1.09e-3 3.39e-8
 5 ago       1.98e-3 4.51e-4 3.48e- 4 8.14e- 4 9.14e- 4 1.01e- 3 2.42e-4 1.45e-3
 6 agreed    9.72e-5 1.16e-3 7.62e- 4 5.14e- 5 6.08e- 4 1.52e- 4 1.55e-3 9.13e-5
 7 agreement 1.37e-6 3.94e-3 1.33e- 3 5.35e- 7 4.62e- 4 1.87e- 5 1.39e-3 6.27e-5
 8 agricult… 1.40e-3 2.97e-4 2.10e- 4 1.78e-12 5.67e- 5 1.48e-15 2.76e-5 2.17e-5
 9 aid       6.99e-5 3.94e-3 2.11e-17 2.95e- 4 2.45e- 4 3.17e- 4 6.72e-6 4.97e-8
10 air       1.45e-3 3.95e-4 1.88e- 8 5.89e- 3 2.59e-10 3.96e- 4 7.06e-4 2.34e-4
# ℹ 293 more rows
# ℹ 1 more variable: log_ratio <dbl>
…
Code

# Create labels for the books
books <- books %>%
    dplyr::mutate(title = dplyr::case_when(
                                    gutenberg_id == 1259 ~ "Great Expectations",
                                    gutenberg_id == 36 ~ "The War of the Worlds",
                                    gutenberg_id == 98 ~ "Tale of Two Cities",
                                    gutenberg_id == 74 ~ "Tom Sawyer",
                                    TRUE ~ NA_character_
))

books

# A tibble: 31,156 × 3
   gutenberg_id text                    title                
          <int> <chr>                   <chr>                
 1           36 "cover "                The War of the Worlds
 2           36 ""                      The War of the Worlds
 3           36 ""                      The War of the Worlds
 4           36 ""                      The War of the Worlds
 5           36 ""                      The War of the Worlds
 6           36 "The War of the Worlds" The War of the Worlds
 7           36 ""                      The War of the Worlds
 8           36 "by H. G. Wells"        The War of the Worlds
 9           36 ""                      The War of the Worlds
10           36 ""                      The War of the Worlds
# ℹ 31,146 more rows
…
